{
	"data": {
		"curPage": 2,
		"datas": [{
				"apkLink": "",
				"audit": 1,
				"author": "美团技术团队",
				"chapterId": 417,
				"chapterName": "美团技术团队",
				"collect": false,
				"courseId": 13,
				"desc": "",
				"envelopePic": "",
				"fresh": false,
				"id": 10750,
				"link": "https:\/\/mp.weixin.qq.com\/s\/sA01gxC4EbgypCsQt5pVog",
				"niceDate": "2019-12-05 00:00",
				"niceShareDate": "2天前",
				"origin": "",
				"prefix": "",
				"projectLink": "",
				"publishTime": 1575475200000,
				"selfVisible": 0,
				"shareDate": 1575634252000,
				"shareUser": "",
				"superChapterId": 408,
				"superChapterName": "公众号",
				"tags": [{
					"name": "公众号",
					"url": "\/wxarticle\/list\/417\/1"
				}],
				"title": "从ReentrantLock的实现看AQS的原理及应用",
				"type": 0,
				"userId": -1,
				"visible": 1,
				"zan": 0
			},
			{
				"apkLink": "",
				"audit": 1,
				"author": "",
				"chapterId": 126,
				"chapterName": "绘图相关",
				"collect": false,
				"courseId": 13,
				"desc": "",
				"envelopePic": "",
				"fresh": false,
				"id": 10689,
				"link": "https:\/\/juejin.im\/post\/5de514fcf265da060115e02d",
				"niceDate": "2019-12-04 22:48",
				"niceShareDate": "2019-12-04 22:27",
				"origin": "",
				"prefix": "",
				"projectLink": "",
				"publishTime": 1575470882000,
				"selfVisible": 0,
				"shareDate": 1575469671000,
				"shareUser": "鸿洋",
				"superChapterId": 126,
				"superChapterName": "自定义控件",
				"tags": [],
				"title": "高级 UI 成长之路 (五) 看完该篇文章 Canvas 你应该会了",
				"type": 0,
				"userId": 2,
				"visible": 1,
				"zan": 0
			},
			{
				"apkLink": "",
				"audit": 1,
				"author": "",
				"chapterId": 126,
				"chapterName": "绘图相关",
				"collect": false,
				"courseId": 13,
				"desc": "",
				"envelopePic": "",
				"fresh": false,
				"id": 10688,
				"link": "https:\/\/juejin.im\/post\/5de789dce51d4557e76a4a39",
				"niceDate": "2019-12-04 22:47",
				"niceShareDate": "2019-12-04 22:27",
				"origin": "",
				"prefix": "",
				"projectLink": "",
				"publishTime": 1575470871000,
				"selfVisible": 0,
				"shareDate": 1575469667000,
				"shareUser": "鸿洋",
				"superChapterId": 126,
				"superChapterName": "自定义控件",
				"tags": [],
				"title": "高级 UI 成长之路 (六) PathMeasure 制作路径动画",
				"type": 0,
				"userId": 2,
				"visible": 1,
				"zan": 0
			},
			{
				"apkLink": "",
				"audit": 1,
				"author": "SheHuan",
				"chapterId": 402,
				"chapterName": "跨平台应用",
				"collect": false,
				"courseId": 13,
				"desc": "小程序版本的 玩Android 客户端",
				"envelopePic": "https:\/\/www.wanandroid.com\/blogimgs\/9760b5d0-028f-49bc-9fe2-fbca34b2ba63.png",
				"fresh": false,
				"id": 10690,
				"link": "https:\/\/www.wanandroid.com\/blog\/show\/2712",
				"niceDate": "2019-12-04 22:29",
				"niceShareDate": "2019-12-04 22:29",
				"origin": "",
				"prefix": "",
				"projectLink": "https:\/\/github.com\/SheHuan\/WanAndroid-WXMP",
				"publishTime": 1575469772000,
				"selfVisible": 0,
				"shareDate": 1575469772000,
				"shareUser": "",
				"superChapterId": 294,
				"superChapterName": "开源项目主Tab",
				"tags": [{
					"name": "项目",
					"url": "\/project\/list\/1?cid=402"
				}],
				"title": "小程序版本的 玩Android 客户端",
				"type": 0,
				"userId": -1,
				"visible": 1,
				"zan": 0
			},
			{
				"apkLink": "",
				"audit": 1,
				"author": "azhon",
				"chapterId": 358,
				"chapterName": "项目基础功能",
				"collect": false,
				"courseId": 13,
				"desc": " 支持AndroidX\r\n 支持后台下载\r\n 支持强制更新\r\n 支持自定义下载过程\r\n 支持 设备 &gt;= Android M 动态权限的申请\r\n 支持通知栏进度条展示\r\n 支持Android M N O P Q\r\n 支持中\/英文双语（国际化）\r\n 支持自定义内置对话框样式\r\n 支持取消下载\r\n 支持下载完成 打开新版本后删除旧安装包文件\r\n 使用HttpURLConnection下载，未集成其他第三方框架",
				"envelopePic": "https:\/\/www.wanandroid.com\/resources\/image\/pc\/default_project_img.jpg",
				"fresh": false,
				"id": 10691,
				"link": "https:\/\/www.wanandroid.com\/blog\/show\/2713",
				"niceDate": "2019-12-04 22:29",
				"niceShareDate": "2019-12-04 22:29",
				"origin": "",
				"prefix": "",
				"projectLink": "https:\/\/github.com\/azhon\/AppUpdate",
				"publishTime": 1575469741000,
				"selfVisible": 0,
				"shareDate": 1575469741000,
				"shareUser": "",
				"superChapterId": 294,
				"superChapterName": "开源项目主Tab",
				"tags": [{
					"name": "项目",
					"url": "\/project\/list\/1?cid=358"
				}],
				"title": "一个简单、轻量、可随意定制的Android版本更新库",
				"type": 0,
				"userId": -1,
				"visible": 1,
				"zan": 0
			},
			{
				"apkLink": "",
				"audit": 1,
				"author": "",
				"chapterId": 502,
				"chapterName": "自助",
				"collect": false,
				"courseId": 13,
				"desc": "",
				"envelopePic": "",
				"fresh": false,
				"id": 10677,
				"link": "https:\/\/juejin.im\/post\/5de6474a518825122b0f652b",
				"niceDate": "2019-12-04 10:49",
				"niceShareDate": "2019-12-04 10:49",
				"origin": "",
				"prefix": "",
				"projectLink": "",
				"publishTime": 1575427796000,
				"selfVisible": 0,
				"shareDate": 1575427783000,
				"shareUser": "winlee28",
				"superChapterId": 494,
				"superChapterName": "广场Tab",
				"tags": [],
				"title": "如何在 Java 和 Kotlin 之间进行互操作 ",
				"type": 0,
				"userId": 25211,
				"visible": 1,
				"zan": 0
			},
			{
				"apkLink": "",
				"audit": 1,
				"author": "",
				"chapterId": 484,
				"chapterName": "okhttp",
				"collect": false,
				"courseId": 13,
				"desc": "",
				"envelopePic": "",
				"fresh": false,
				"id": 10649,
				"link": "https:\/\/juejin.im\/post\/5ddddd2a6fb9a07161483fb2",
				"niceDate": "2019-12-04 00:19",
				"niceShareDate": "2019-12-03 08:57",
				"origin": "",
				"prefix": "",
				"projectLink": "",
				"publishTime": 1575389954000,
				"selfVisible": 0,
				"shareDate": 1575334666000,
				"shareUser": "AprilEyon",
				"superChapterId": 461,
				"superChapterName": "常见开源库源码解析",
				"tags": [],
				"title": "Android OKHttp 可能你从来没用过的拦截器",
				"type": 0,
				"userId": 3559,
				"visible": 1,
				"zan": 0
			},
			{
				"apkLink": "",
				"audit": 1,
				"author": "",
				"chapterId": 304,
				"chapterName": "基础源码",
				"collect": false,
				"courseId": 13,
				"desc": "",
				"envelopePic": "",
				"fresh": false,
				"id": 10650,
				"link": "https:\/\/mp.weixin.qq.com\/s?__biz=MzAxOTc0NzExNg==&amp;mid=2665513140&amp;idx=1&amp;sn=565517e977ac56904305a4a9f9d65012&amp;scene=21#wechat_redirect",
				"niceDate": "2019-12-04 00:19",
				"niceShareDate": "2019-12-03 09:17",
				"origin": "",
				"prefix": "",
				"projectLink": "",
				"publishTime": 1575389944000,
				"selfVisible": 0,
				"shareDate": 1575335853000,
				"shareUser": "残页",
				"superChapterId": 245,
				"superChapterName": "Java深入",
				"tags": [],
				"title": "浮点数为什么不精确？",
				"type": 0,
				"userId": 12467,
				"visible": 1,
				"zan": 0
			},
			{
				"apkLink": "",
				"audit": 1,
				"author": "",
				"chapterId": 93,
				"chapterName": "基础知识",
				"collect": false,
				"courseId": 13,
				"desc": "",
				"envelopePic": "",
				"fresh": false,
				"id": 10652,
				"link": "https:\/\/juejin.im\/post\/5d304f38e51d45109b01b250",
				"niceDate": "2019-12-04 00:18",
				"niceShareDate": "2019-12-03 09:42",
				"origin": "",
				"prefix": "",
				"projectLink": "",
				"publishTime": 1575389933000,
				"selfVisible": 0,
				"shareDate": 1575337325000,
				"shareUser": "灰丨色",
				"superChapterId": 126,
				"superChapterName": "自定义控件",
				"tags": [],
				"title": "计算机视觉在 Android 中的一些应用",
				"type": 0,
				"userId": 28694,
				"visible": 1,
				"zan": 0
			},
			{
				"apkLink": "",
				"audit": 1,
				"author": "xiaoyang",
				"chapterId": 440,
				"chapterName": "官方",
				"collect": false,
				"courseId": 13,
				"desc": "<p>上周几个小伙伴聊到一个比较有意思的问题，大家都知道浮点数相加，会丢失精度：<\/p>\r\n<p>看这个例子：<\/p>\r\n<pre><code>    public static void main(String[] args){\r\n        System.out.println(0.3f + 0.6f);\r\n        System.out.println(0.3 + 0.6);\r\n        System.out.println(0.9);\r\n    }\r\n<\/code><\/pre><pre><code>输出:\r\n\r\n0.90000004\r\n0.8999999999999999\r\n0.9\r\n<\/code><\/pre><p>问题是：<\/p>\r\n<p>精度为什么会丢失，计算机能存那么多数字，一个0.3+0.6怎么就丢精度了呢？<\/p>\r\n<p>附加题：为何 float 和 double 的计算输出结果差异还挺大的呢？<\/p>\r\n<blockquote>\r\n<p>jdk 1.8.0<\/p>\r\n<\/blockquote>",
				"envelopePic": "",
				"fresh": false,
				"id": 10574,
				"link": "https:\/\/www.wanandroid.com\/wenda\/show\/10574",
				"niceDate": "2019-12-04 00:18",

				"niceShareDate": "2019-11-30 19:27",
				"origin": "",
				"prefix": "",
				"projectLink": "",
				"publishTime": 1575389887000,
				"selfVisible": 0,
				"shareDate": 1575113261000,
				"shareUser": "",
				"superChapterId": 440,
				"superChapterName": "问答",
				"tags": [{
					"name": "问答",
					"url": "\/article\/list\/0?cid=440"
				}],
				"title": "每日一问  精度到底是哪里丢失了？",
				"type": 0,
				"userId": 2,
				"visible": 1,
				"zan": 15
			},
			{
				"apkLink": "",
				"audit": 1,
				"author": "鸿洋",
				"chapterId": 408,
				"chapterName": "鸿洋",
				"collect": false,
				"courseId": 13,
				"desc": "",
				"envelopePic": "",
				"fresh": false,
				"id": 10733,
				"link": "https:\/\/mp.weixin.qq.com\/s\/4Ejc9-_OB6F0M0_KuYqCzg",
				"niceDate": "2019-12-04 00:00",
				"niceShareDate": "2天前",
				"origin": "",
				"prefix": "",
				"projectLink": "",
				"publishTime": 1575388800000,
				"selfVisible": 0,
				"shareDate": 1575632641000,
				"shareUser": "",
				"superChapterId": 408,
				"superChapterName": "公众号",
				"tags": [{
					"name": "公众号",
					"url": "\/wxarticle\/list\/408\/1"
				}],
				"title": "跟着玩 Android 起飞！",
				"type": 0,
				"userId": -1,
				"visible": 1,
				"zan": 0
			},
			{
				"apkLink": "",
				"audit": 1,
				"author": "code小生",
				"chapterId": 414,
				"chapterName": "code小生",
				"collect": false,
				"courseId": 13,
				"desc": "",
				"envelopePic": "",
				"fresh": false,
				"id": 10739,
				"link": "https:\/\/mp.weixin.qq.com\/s\/aLmB6rkQXnrXuvaDCC2rag",
				"niceDate": "2019-12-04 00:00",
				"niceShareDate": "2天前",
				"origin": "",
				"prefix": "",
				"projectLink": "",
				"publishTime": 1575388800000,
				"selfVisible": 0,
				"shareDate": 1575633134000,
				"shareUser": "",
				"superChapterId": 408,
				"superChapterName": "公众号",
				"tags": [{
					"name": "公众号",
					"url": "\/wxarticle\/list\/414\/1"

				}],
				"title": "漫画设计模式：策略模式",
				"type": 0,
				"userId": -1,
				"visible": 1,
				"zan": 0
			},
			{
				"apkLink": "",
				"audit": 1,
				"author": "玉刚说",
				"chapterId": 410,
				"chapterName": "玉刚说",
				"collect": false,
				"courseId": 13,
				"desc": "",
				"envelopePic": "",
				"fresh": false,
				"id": 10745,
				"link": "https:\/\/mp.weixin.qq.com\/s\/NFHNRQM9FAkxZDPbn5M-iA",
				"niceDate": "2019-12-04 00:00",
				"niceShareDate": "2天前",
				"origin": "",
				"prefix": "",
				"projectLink": "",
				"publishTime": 1575388800000,
				"selfVisible": 0,
				"shareDate": 1575633959000,
				"shareUser": "",
				"superChapterId": 408,
				"superChapterName": "公众号",
				"tags": [{
					"name": "公众号",
					"url": "\/wxarticle\/list\/410\/1"
				}],
				"title": "给 Retrofit 嵌套动态代理，高效处理运营打点难题",
				"type": 0,
				"userId": -1,
				"visible": 1,
				"zan": 0
			},
			{
				"apkLink": "",
				"audit": 1,
				"author": "互联网侦察",
				"chapterId": 421,
				"chapterName": "互联网侦察",
				"collect": false,
				"courseId": 13,
				"desc": "",
				"envelopePic": "",
				"fresh": false,
				"id": 10748,
				"link": "https:\/\/mp.weixin.qq.com\/s\/UVjpC1IsII0C_VxTq6htCQ",
				"niceDate": "2019-12-04 00:00",
				"niceShareDate": "2天前",
				"origin": "",
				"prefix": "",
				"projectLink": "",
				"publishTime": 1575388800000,
				"selfVisible": 0,
				"shareDate": 1575634024000,
				"shareUser": "",
				"superChapterId": 408,
				"superChapterName": "公众号",
				"tags": [{
					"name": "公众号",
					"url": "\/wxarticle\/list\/421\/1"
				}],
				"title": "为什么redis 是单线程的？",
				"type": 0,
				"userId": -1,
				"visible": 1,
				"zan": 0
			},
			{
				"apkLink": "",
				"audit": 1,
				"author": "",
				"chapterId": 502,
				"chapterName": "自助",
				"collect": false,
				"courseId": 13,
				"desc": "",
				"envelopePic": "",
				"fresh": false,
				"id": 10654,
				"link": "https:\/\/www.jianshu.com\/p\/43e21be8d849",
				"niceDate": "2019-12-03 10:05",
				"niceShareDate": "2019-12-03 10:05",
				"origin": "",
				"prefix": "",
				"projectLink": "",
				"publishTime": 1575338709000,
				"selfVisible": 0,
				"shareDate": 1575338709000,
				"shareUser": "吊儿郎当",
				"superChapterId": 494,
				"superChapterName": "广场Tab",
				"tags": [],
				"title": "面试经常问的Handler机制，以及Handler的错误使用场景",
				"type": 0,
				"userId": 2554,
				"visible": 1,
				"zan": 0
			},
			{
				"apkLink": "",
				"audit": 1,
				"author": "",
				"chapterId": 73,
				"chapterName": "面试相关",
				"collect": false,
				"courseId": 13,
				"desc": "",
				"envelopePic": "",
				"fresh": false,
				"id": 10641,
				"link": "https:\/\/www.jianshu.com\/p\/8c52922e5d1e?utm_source=desktop&amp;utm_medium=timeline",
				"niceDate": "2019-12-03 00:20",
				"niceShareDate": "2019-12-03 00:13",
				"origin": "",
				"prefix": "",
				"projectLink": "",
				"publishTime": 1575303633000,
				"selfVisible": 0,
				"shareDate": 1575303206000,
				"shareUser": "鸿洋",
				"superChapterId": 185,
				"superChapterName": "热门专题",
				"tags": [],
				"title": "Android 中高级面试必知必会",
				"type": 0,
				"userId": 2,
				"visible": 1,
				"zan": 0
			},
			{
				"apkLink": "",
				"audit": 1,
				"author": "",
				"chapterId": 313,
				"chapterName": "字节码",
				"collect": false,
				"courseId": 13,
				"desc": "",
				"envelopePic": "",
				"fresh": false,
				"id": 10642,
				"link": "https:\/\/www.jianshu.com\/p\/abd1b1b8d3f3?utm_source=desktop&amp;utm_medium=timeline",
				"niceDate": "2019-12-03 00:20",
				"niceShareDate": "2019-12-03 00:13",
				"origin": "",
				"prefix": "",
				"projectLink": "",
				"publishTime": 1575303615000,
				"selfVisible": 0,
				"shareDate": 1575303235000,
				"shareUser": "鸿洋",
				"superChapterId": 245,
				"superChapterName": "Java深入",
				"tags": [],
				"title": "ASM Core Api 详解",
				"type": 0,
				"userId": 2,
				"visible": 1,
				"zan": 0
			},
			{
				"apkLink": "",
				"audit": 1,
				"author": "",
				"chapterId": 229,
				"chapterName": "AOP",
				"collect": false,
				"courseId": 13,
				"desc": "",
				"envelopePic": "",
				"fresh": false,
				"id": 10643,
				"link": "https:\/\/www.jianshu.com\/p\/0799aa19ada1",
				"niceDate": "2019-12-03 00:19",
				"niceShareDate": "2019-12-03 00:14",
				"origin": "",
				"prefix": "",
				"projectLink": "",
				"publishTime": 1575303597000,
				"selfVisible": 0,
				"shareDate": 1575303286000,
				"shareUser": "鸿洋",
				"superChapterId": 227,
				"superChapterName": "注解 & 反射 & AOP",
				"tags": [],
				"title": "一文读懂 AOP | 你想要的最全面 AOP 方法探讨",
				"type": 0,
				"userId": 2,
				"visible": 1,
				"zan": 0
			},
			{
				"apkLink": "",
				"audit": 1,
				"author": "鸿洋",
				"chapterId": 408,
				"chapterName": "鸿洋",
				"collect": false,
				"courseId": 13,
				"desc": "",
				"envelopePic": "",
				"fresh": false,
				"id": 10731,
				"link": "https:\/\/mp.weixin.qq.com\/s\/W4PY3VEz3MGqI3W0dKAQjg",
				"niceDate": "2019-12-03 00:00",
				"niceShareDate": "2天前",
				"origin": "",
				"prefix": "",
				"projectLink": "",
				"publishTime": 1575302400000,
				"selfVisible": 0,
				"shareDate": 1575632572000,
				"shareUser": "",
				"superChapterId": 408,
				"superChapterName": "公众号",
				"tags": [{
					"name": "公众号",
					"url": "\/wxarticle\/list\/408\/1"
				}],
				"title": "无侵入式获取全局Context",
				"type": 0,
				"userId": -1,
				"visible": 1,
				"zan": 0
			},
			{
				"apkLink": "",
				"audit": 1,
				"author": "郭霖",
				"chapterId": 409,
				"chapterName": "郭霖",
				"collect": false,
				"courseId": 13,
				"desc": "",
				"envelopePic": "",
				"fresh": false,
				"id": 10735,
				"link": "https:\/\/mp.weixin.qq.com\/s\/0haD2epzqBXRuMbXMKP_xQ",
				"niceDate": "2019-12-03 00:00",
				"niceShareDate": "2天前",
				"origin": "",
				"prefix": "",
				"projectLink": "",
				"publishTime": 1575302400000,

				"selfVisible": 0,
				"shareDate": 1575633042000,
				"shareUser": "",
				"superChapterId": 408,
				"superChapterName": "公众号",
				"tags": [{
					"name": "公众号",
					"url": "\/wxarticle\/list\/409\/1"
				}],
				"title": "反码、补码、位运算符，这些基础知识你都掌握了么？",
				"type": 0,
				"userId": -1,
				"visible": 1,
				"zan": 0
			}
		],
		"offset": 20,
		"over": false,
		"pageCount": 383,
		"size": 20,
		"total": 7643
	},
	"errorCode": 0,
	"errorMsg": ""
}